#379 - Judea

owner = A47
controller = A47
add_core = A47
culture = tefori
religion = regent_court

hre = no

base_tax = 4
base_production = 3
base_manpower = 2

trade_goods = fish

capital = ""

is_city = yes











