# No previous file for Dali
owner = F27
controller = F27
add_core = F27
culture = firanyan_harpy
religion = the_hunt


base_tax = 2
base_production = 2
base_manpower = 2

trade_goods = iron

capital = ""

is_city = yes









