#Country Name: Please see filename.

graphical_culture = muslimgfx

color = { 153  76  0 }



historical_idea_groups = {
	offensive_ideas
	administrative_ideas
	trade_ideas
	quality_ideas
	economic_ideas	
	quantity_ideas	
	humanist_ideas
	defensive_ideas
}

historical_units = {
	
}

monarch_names = {
	#Hobgoblin Names
	"Amihiku #0" = 50
	"Artuko #0" = 50
	"Atkuro #0" = 50
	"Bishingo #0" = 50
	"Bochiro #0" = 50
	"Carg #0" = 50
	"Clenzo #0" = 50
	"Deaku #0" = 50
	"Dizhiko #0" = 50
	"Dizuwon #0" = 50
	"Dramkoro #0" = 50
	"Elgoji #0" = 50
	"Faiko #0" = 50
	"Fazato #0" = 50
	"Fazimitzu #0" = 50
	"Fazoku #0" = 50
	"Fezuko #0" = 50
	"Fraizhi #0" = 50
	"Gaxami #0" = 50
	"Gezzingo #0" = 50
	"Ghukorai #0" = 50
	"Gramziko #0" = 50
	"Horozuke #0" = 50
	"Iztue #0" = 50
	"Jadahiro #0" = 50
	"Jonozuke #0" = 50
	"Kaburo #0" = 50
	"Koburo #0" = 50
	"Krenzo #0" = 50
	"Krirgi #0" = 50
	"Kyoizi #0" = 50
	"Mekuro #0" = 50
	"Mekuwon #0" = 50
	"Moguwon #0" = 50
	"Nagohei #0" = 50
	"Plakzuo #0" = 50
	"Qirota #0" = 50
	"Rozuo #0" = 50
	"Sitzuako #0" = 50
	"Vitiro #0" = 50
	"Vragori #0" = 50
	"Yojimbo #0" = 50
	"Yuto #0" = 50
	"Zaffate #0" = 50
	"Zoburu #0" = 50
	"Zomazu #0" = 50
	"Zonkuro #0" = 50
	"Zurshin #0" = 50
	"Zuzak #0" = 50
	"Zyu #0" = 50
	
	"Akura #0" = -1
	"Asuna #0" = -1
	"Bemune #0" = -1
	"Ciko #0" = -1
	"Dekaede #0" = -1
	"Detumi #0" = -1
	"Dezhie #0" = -1
	"Dezouko #0" = -1
	"Ekako #0" = -1
	"Fanchegli #0" = -1
	"Glozuki #0" = -1
	"Jeru #0" = -1
	"Jetaka #0" = -1
	"Jibisaki #0" = -1
	"Kiariko #0" = -1
	"Kiliko #0" = -1
	"Kimpoharu #0" = -1
	"Kitomi #0" = -1
	"Minxuo #0" = -1
	"Moposhi #0" = -1
	"Nengumi #0" = -1
	"Nin #0" = -1
	"Oikemi #0" = -1
	"Palchiko #0" = -1
	"Pedgoku #0" = -1
	"Qao #0" = -1
	"Qeskane #0" = -1
	"Ran #0" = -1
	"Ranako #0" = -1
	"Sakara #0" = -1
	"Seneko #0" = -1
	"Shaltiko #0" = -1
	"Silaziko #0" = -1
	"Tamoko #0" = -1
	"Taraka #0" = -1
	"Umayano #0" = -1
	"Vakiko #0" = -1
	"Vezuko #0" = -1
	"Voxaoru #0" = -1
	"Vronoki #0" = -1
	"Yanon #0" = -1
	"Yokochu #0" = -1
	"Yui #0" = -1
	"Yzviku #0" = -1
	"Zoyuko #0" = -1
}

leader_names = {
	Wolfborn Boarborn Lionborn

	# "of the Red Boars" "of the Boar Charge" "of the Boar-Tusks" "of the Boar Heart" "of the Brown Boars" "of the Green Boars" "of the Northern Boars" "of the Cave Boars"
	# "of the Sand Wolves" "of the Wolf Fangs" "of the Wolf Heart" "of the Wolf Head" "of the Thunder Wolves" "of the Green Wolves" "of the Gray Wolves" "of the Western Wolves"
	# "of the Lion-Claws" "of the Lion Maw" "of the Lion Heart" "of the Brown Lions" "of the Lion Might" "of the Blood Lions" "of the Yellow Lions" "of the Eastern Lions"
}

ship_names = {
	Akura Artuko
	Bochiro Bemune
	Carg Ciko
	Deaku Dezouko
	Ekako Elgoji
	Jadahiro Jeru Jetaka Jonozuke
	Kaburo Kiliko Koburo Krenzo
	Moguwon Mekuwon Mekuro
	Qao Qirota
	Sakara Seneko
	Tamoko Taraka
	Vakiko Vitiro Vragori
	Yanon Yuto
}

army_names = {
	"Army of the Wolf Command" "Army of the Boar Command" "Army of the Lion Command" "Army of the North" "Army of the West" "Army of the East" "Army of the South"
	"Army of the Red Boars" "Boar Charge Army" "Boar Heart's Army" "Army of the Brown Boars" "Army of the Green Boars" "Boar-Tusks' Army" "Dvarovar Army" 
	"Army of the Gray Wolves" "Army of the Sand Wolves" "Wolf Fangs' Army" "Wolf Heart's Army" "Wolf Head's Army" "Army of the Thunder Wolves" "Army of the Green Wolves"
	"Lion Claws' Army" "Lion Maw's Army" "Lion Heart's Army" "Army of the Brown Lions" "Lion Might's Army" "Army of the Blood Lions" "Army of the Yellow Lions"
	"Army of $PROVINCE$"
}

fleet_names = {
	"Fleet of the Command" "Fleet of the Blue Wolves" "Fleet of the Blue Dragons" "Fleet of the Blue Boars"
}